<?xml version="1.0" encoding="UTF-8"?>
<svg width="7px" height="12px" viewBox="0 0 7 12" version="1.1" xmlns="http://www.w3.org/2000/svg" xmlns:xlink="http://www.w3.org/1999/xlink">
    <title>Path</title>
    <g id="Page-1" stroke="none" stroke-width="1" fill="none" fill-rule="evenodd">
        <g id="BG-home-v2-Copy" transform="translate(-684.000000, -676.000000)" fill="#FFFFFF" fill-rule="nonzero">
            <g id="Group-4" transform="translate(510.000000, 666.000000)">
                <polygon id="Path" transform="translate(177.500000, 16.000000) rotate(180.000000) translate(-177.500000, -16.000000) " points="174 16 179.833333 22 181 20.8 176.333333 16 181 11.2 179.833333 10"></polygon>
            </g>
        </g>
    </g>
</svg>